Music Genre Classification
…
bigrams_sep <- lyrics_bigrams %>% separate(bigram, c("word1", "word2"), sep=" ")

bigrams_fil <- bigrams_sep %>%
filter(!word1 %in% stop_words$word) %>%
filter(!word2 %in% stop_words$word)

bigram_counts <- bigrams_fil %>%
count(word1, word2, sort = TRUE)

# finding most common connotations with love on first and second place

bigram_counts %>% filter(word1 == "love")

## # A tibble: 2,329 x 3
##    word1 word2       n
##    <chr> <chr>   <int>
##  1 love  love     3491
##  2 love  time      310
##  3 love  feel      269
##  4 love  life      256
##  5 love  girl      236
##  6 love  night     196
##  7 love  true      170
##  8 love  forever   166
##  9 love  hold      133
## 10 love  world     120
## # ... with 2,319 more rows

bigram_counts %>% filter(word2 == "love")

## # A tibble: 2,390 x 3
##    word1   word2     n
##    <chr>   <chr> <int>
##  1 love    love   3491
##  2 feel    love    339
##  3 girl    love    283
##  4 time    love    274
##  5 true    love    261
##  6 life    love    205
##  7 night   love    179
##  8 world   love    169
##  9 sweet   love    113
## 10 forever love    108
## # ... with 2,380 more rows
…
This could be very intuitiveâ€“indeed sining about â€œmovesâ€and â€œrhythmâ€ may be associated with Electronic music, while most vulgar words like â€œbitchâ€ come with Hip-Hop.

After finding the most popular words, we focused on sentiment analysis of emotions in lyrics.

We decided to use library nrc for sentimens of fear, anger and joy.

# fear 

nrcfear <- get_sentiments("nrc") %>% filter(sentiment == "fear")
lyrics %>% inner_join(nrcfear) %>% count(word, sort=T)

## Joining, by = "word"

## # A tibble: 23,630 x 3
## # Groups:   song [8,600]
##    song                     word      n
##    <chr>                    <chr> <int>
##  1 fever                    fever    77
##  2 rebel-of-the-underground rebel    64
##  3 benz-friendz-watchutola  bitch    51
##  4 lose-yourself-to-dance   lose     43
##  5 running-with-the-devil   devil    42
##  6 wie-maak-die-jol-vol     die      42
##  7 wise-up-ghost            ghost    42
##  8 on-the-dancefloor        fire     40
##  9 fire-ant                 fire     38
## 10 move-bitch               bitch    38
## # ... with 23,620 more rows

# joy 

nrcjoy <- get_sentiments("nrc") %>% filter(sentiment == "joy")
lyrics %>% inner_join(nrcjoy) %>% count(word, sort=T)

## Joining, by = "word"

## # A tibble: 25,746 x 3
## # Groups:   song [9,472]
##    song                              word      n
##    <chr>                             <chr> <int>
##  1 what-if-i-was-white               white   170
##  2 i-love-you                        love     99
##  3 have-fun                          fun      73
##  4 what-is-love                      love     69
##  5 if-you-re-not-gonna-love-me-right love     64
##  6 lover                             lover    63
##  7 wild-love                         love     60
##  8 sex-drive                         sex      57
##  9 blood-money                       money    56
## 10 got-caught-dealin                 money    52
## # ... with 25,736 more rows

# anger 

nrcanger <- get_sentiments("nrc") %>% filter(sentiment == "anger")
lyrics %>% inner_join(nrcanger) %>% count(word, sort=T)

## Joining, by = "word"

## # A tibble: 22,660 x 3
## # Groups:   song [8,229]
##    song                     word         n
##    <chr>                    <chr>    <int>
##  1 rebel-of-the-underground rebel       64
##  2 blood-money              money       56
##  3 got-caught-dealin        money       52
##  4 benz-friendz-watchutola  bitch       51
##  5 lose-yourself-to-dance   lose        43
##  6 running-with-the-devil   devil       42
##  7 move-bitch               bitch       38
##  8 i-m-hot                  hot         35
##  9 prisoner                 prisoner    33
## 10 mayhem                   bout        32
## # ... with 22,650 more rows
…
